Temperatura JP x CG
…
Temperatura

Qual foi o So Joo mais frio de CG que est nos nossos dados?

Encontrei a necessidade de criar um ranking para responder a pergunta, nesse caso, foi colocada em destaque a mdia das chuvas no periodo de junho na cidade de Campina Grande, utilizando o aspecto de linearidade dos anos no eixo X, tratando como um tipo especfico de timeline.

campina = climas %>%
    filter(mes == 6 & cidade == "Campina Grande") %>%
    group_by(ano) %>%
    summarise(temp_media = mean(tmedia)) %>% 
    mutate(mais_frio = if_else(temp_media == min(temp_media), TRUE, FALSE))

campina

## # A tibble: 22 x 3
##      ano temp_media mais_frio
##    <dbl>      <dbl> <lgl>    
##  1  1995       22.4 FALSE    
##  2  1996       22.5 FALSE    
##  3  1997       22.9 FALSE    
##  4  1998       23.8 FALSE    
##  5  1999       23.9 FALSE    
##  6  2002       22.4 FALSE    
##  7  2003       22.9 FALSE    
##  8  2004       22.1 TRUE     
##  9  2005       22.3 FALSE    
## 10  2006       22.8 FALSE    
## # ... with 12 more rows
…
